EDA Actividad
…
Prediccin, Ao = 200 conicin = 3

#No es un un buen predictor
prediction(params, 2000, 3)

## [1] 3097419

price_prediction <- lm(log10_price ~ log10_above * grade , data = house_prices_new)

parameters <- get_regression_table(price_prediction)

parameters

## # A tibble: 23 x 7
##    term        estimate std_error statistic p_value lower_ci upper_ci
##    <chr>          <dbl>     <dbl>     <dbl>   <dbl>    <dbl>    <dbl>
##  1 intercept       4.95     0.659      7.50   0        3.65      6.24
##  2 log10_above     1.07     0.447      2.39   0.017    0.193     1.94
##  3 grade3          9.76     3.65       2.68   0.007    2.61     16.9 
##  4 grade4          2.04     0.766      2.66   0.008    0.535     3.54
##  5 grade5          1.34     0.673      1.99   0.047    0.019     2.66
##  6 grade6          1.52     0.662      2.30   0.022    0.224     2.82
##  7 grade7          1.62     0.66       2.45   0.014    0.323     2.91
##  8 grade8          1.65     0.66       2.49   0.013    0.352     2.94
##  9 grade9          1.89     0.662      2.86   0.004    0.594     3.19
## 10 grade10         1.77     0.668      2.65   0.008    0.461     3.08
## # ... with 13 more rows
…
