EDA
…
house_prices_new %>% 
  select(log10_price,  log10_size)

## # A tibble: 21,613 x 2
##    log10_price log10_size
##          <dbl>      <dbl>
##  1        6.67       2.04
##  2        7.05       2.38
##  3        6.58       1.85
##  4        7.10       2.26
##  5        7.03       2.19
##  6        7.41       2.70
##  7        6.73       2.20
##  8        6.79       1.99
##  9        6.68       2.22
## 10        6.83       2.24
## # ... with 21,603 more rows
…
