Jane Austen Books
…
#cargar los libros de jean
book_words <- austen_books() %>%
  unnest_tokens(word, text) %>% #separando cada libro por palabras
  count(book, word, sort = TRUE)#contando cada palabra de los libros (cuntes veces)

book_words

## # A tibble: 40,379 x 3
##    book              word      n
##    <fct>             <chr> <int>
##  1 Mansfield Park    the    6206
##  2 Mansfield Park    to     5475
##  3 Mansfield Park    and    5438
##  4 Emma              to     5239
##  5 Emma              the    5201
##  6 Emma              and    4896
##  7 Mansfield Park    of     4778
##  8 Pride & Prejudice the    4331
##  9 Emma              of     4291
## 10 Pride & Prejudice to     4162
## # ... with 40,369 more rows
…
book_words <- left_join(book_words, total_words) #juntar book_words con total_words

## Joining, by = "book"

book_words

## # A tibble: 40,379 x 4
##    book              word      n  total
##    <fct>             <chr> <int>  <int>
##  1 Mansfield Park    the    6206 160460
##  2 Mansfield Park    to     5475 160460
##  3 Mansfield Park    and    5438 160460
##  4 Emma              to     5239 160996
##  5 Emma              the    5201 160996
##  6 Emma              and    4896 160996
##  7 Mansfield Park    of     4778 160460
##  8 Pride & Prejudice the    4331 122204
##  9 Emma              of     4291 160996
## 10 Pride & Prejudice to     4162 122204
## # ... with 40,369 more rows

freq_by_rank <- book_words %>% 
  group_by(book) %>% #agrupar por libro
  mutate(rank = row_number(), 
         `term frequency` = n/total)# agregamos rango(la ms comn, el segundo menos comn, etc) y frecuencia

freq_by_rank

## # A tibble: 40,379 x 6
## # Groups:   book [6]
##    book              word      n  total  rank `term frequency`
##    <fct>             <chr> <int>  <int> <int>            <dbl>
##  1 Mansfield Park    the    6206 160460     1           0.0387
##  2 Mansfield Park    to     5475 160460     2           0.0341
##  3 Mansfield Park    and    5438 160460     3           0.0339
##  4 Emma              to     5239 160996     1           0.0325
##  5 Emma              the    5201 160996     2           0.0323
##  6 Emma              and    4896 160996     3           0.0304
##  7 Mansfield Park    of     4778 160460     4           0.0298
##  8 Pride & Prejudice the    4331 122204     1           0.0354
##  9 Emma              of     4291 160996     4           0.0267
## 10 Pride & Prejudice to     4162 122204     2           0.0341
## # ... with 40,369 more rows

book_words <- book_words %>%
  bind_tf_idf(word, book, n) 

# tf_idf = tf*idf
book_words

## # A tibble: 40,379 x 7
##    book              word      n  total     tf   idf tf_idf
##    <fct>             <chr> <int>  <int>  <dbl> <dbl>  <dbl>
##  1 Mansfield Park    the    6206 160460 0.0387     0      0
##  2 Mansfield Park    to     5475 160460 0.0341     0      0
##  3 Mansfield Park    and    5438 160460 0.0339     0      0
##  4 Emma              to     5239 160996 0.0325     0      0
##  5 Emma              the    5201 160996 0.0323     0      0
##  6 Emma              and    4896 160996 0.0304     0      0
##  7 Mansfield Park    of     4778 160460 0.0298     0      0
##  8 Pride & Prejudice the    4331 122204 0.0354     0      0
##  9 Emma              of     4291 160996 0.0267     0      0
## 10 Pride & Prejudice to     4162 122204 0.0341     0      0
## # ... with 40,369 more rows

book_words %>%
  select(-total) %>%
  arrange(desc(tf_idf))

## # A tibble: 40,379 x 6
##    book                word          n      tf   idf  tf_idf
##    <fct>               <chr>     <int>   <dbl> <dbl>   <dbl>
##  1 Sense & Sensibility elinor      623 0.00519  1.79 0.00931
##  2 Sense & Sensibility marianne    492 0.00410  1.79 0.00735
##  3 Mansfield Park      crawford    493 0.00307  1.79 0.00551
##  4 Pride & Prejudice   darcy       373 0.00305  1.79 0.00547
##  5 Persuasion          elliot      254 0.00304  1.79 0.00544
##  6 Emma                emma        786 0.00488  1.10 0.00536
##  7 Northanger Abbey    tilney      196 0.00252  1.79 0.00452
##  8 Emma                weston      389 0.00242  1.79 0.00433
##  9 Pride & Prejudice   bennet      294 0.00241  1.79 0.00431
## 10 Persuasion          wentworth   191 0.00228  1.79 0.00409
## # ... with 40,369 more rows
…
